{"response": {"status": "ok", "userTier": "developer", "total": 15582, "startIndex": 1, "pageSize": 10, "currentPage": 1, "pages": 1559, "orderBy": "relevance", "results": [{"id": "world/2020/feb/27/what-is-covid-19", "type": "article", "sectionId": "world", "sectionName": "World news", "webPublicationDate": "2020-03-25T07:00:39Z", "webTitle": "What is Covid-19?", "webUrl": "https://www.theguardian.com/world/2020/feb/27/what-is-covid-19", "apiUrl": "https://content.guardianapis.com/world/2020/feb/27/what-is-covid-19", "isHosted": false, "pillarId": "pillar/news", "pillarName": "News"}, {"id": "environment/2020/apr/18/covid-19-a-blessing-for-pangolins", "type": "article", "sectionId": "environment", "sectionName": "Environment", "webPublicationDate": "2020-04-18T17:00:14Z", "webTitle": "Covid-19 \u2013 a blessing for pangolins?", "webUrl": "https://www.theguardian.com/environment/2020/apr/18/covid-19-a-blessing-for-pangolins", "apiUrl": "https://content.guardianapis.com/environment/2020/apr/18/covid-19-a-blessing-for-pangolins", "isHosted": false, "pillarId": "pillar/news", "pillarName": "News"}, {"id": "world/2020/apr/17/pregnancy-and-the-covid-19-frontline", "type": "article", "sectionId": "world", "sectionName": "World news", "webPublicationDate": "2020-04-17T15:46:13Z", "webTitle": "Pregnancy and the Covid-19 frontline | Letters", "webUrl": "https://www.theguardian.com/world/2020/apr/17/pregnancy-and-the-covid-19-frontline", "apiUrl": "https://content.guardianapis.com/world/2020/apr/17/pregnancy-and-the-covid-19-frontline", "isHosted": false, "pillarId": "pillar/news", "pillarName": "News"}, {"id": "world/2020/apr/19/key-questions-for-a-covid-19-inquiry", "type": "article", "sectionId": "world", "sectionName": "World news", "webPublicationDate": "2020-04-19T16:57:00Z", "webTitle": "Key questions for a Covid-19 inquiry | Letters", "webUrl": "https://www.theguardian.com/world/2020/apr/19/key-questions-for-a-covid-19-inquiry", "apiUrl": "https://content.guardianapis.com/world/2020/apr/19/key-questions-for-a-covid-19-inquiry", "isHosted": false, "pillarId": "pillar/news", "pillarName": "News"}, {"id": "world/2020/mar/29/first-nhs-consultant-dies-from-covid-19", "type": "article", "sectionId": "world", "sectionName": "World news", "webPublicationDate": "2020-03-29T16:37:18Z", "webTitle": "NHS consultant dies from Covid-19", "webUrl": "https://www.theguardian.com/world/2020/mar/29/first-nhs-consultant-dies-from-covid-19", "apiUrl": "https://content.guardianapis.com/world/2020/mar/29/first-nhs-consultant-dies-from-covid-19", "isHosted": false, "pillarId": "pillar/news", "pillarName": "News"}, {"id": "world/2020/mar/25/dispatches-from-the-covid-19-frontline", "type": "article", "sectionId": "world", "sectionName": "World news", "webPublicationDate": "2020-03-25T19:27:20Z", "webTitle": "Dispatches from the Covid-19 frontline", "webUrl": "https://www.theguardian.com/world/2020/mar/25/dispatches-from-the-covid-19-frontline", "apiUrl": "https://content.guardianapis.com/world/2020/mar/25/dispatches-from-the-covid-19-frontline", "isHosted": false, "pillarId": "pillar/news", "pillarName": "News"}, {"id": "world/2020/mar/18/russian-media-spreading-covid-19-disinformation", "type": "article", "sectionId": "world", "sectionName": "World news", "webPublicationDate": "2020-03-18T16:57:30Z", "webTitle": "Russian media \u2018spreading Covid-19 disinformation\u2019", "webUrl": "https://www.theguardian.com/world/2020/mar/18/russian-media-spreading-covid-19-disinformation", "apiUrl": "https://content.guardianapis.com/world/2020/mar/18/russian-media-spreading-covid-19-disinformation", "isHosted": false, "pillarId": "pillar/news", "pillarName": "News"}, {"id": "environment/2020/apr/17/polluter-bailouts-and-lobbying-during-covid-19-pandemic", "type": "article", "sectionId": "environment", "sectionName": "Environment", "webPublicationDate": "2020-04-17T09:00:10Z", "webTitle": "Polluter bailouts and lobbying during Covid-19 pandemic", "webUrl": "https://www.theguardian.com/environment/2020/apr/17/polluter-bailouts-and-lobbying-during-covid-19-pandemic", "apiUrl": "https://content.guardianapis.com/environment/2020/apr/17/polluter-bailouts-and-lobbying-during-covid-19-pandemic", "isHosted": false, "pillarId": "pillar/news", "pillarName": "News"}, {"id": "technology/2020/apr/06/minister-condemns-airbnb-hosts-offering-covid-19-retreats", "type": "article", "sectionId": "technology", "sectionName": "Technology", "webPublicationDate": "2020-04-06T17:00:23Z", "webTitle": "Minister condemns Airbnb hosts offering 'Covid-19 retreats'", "webUrl": "https://www.theguardian.com/technology/2020/apr/06/minister-condemns-airbnb-hosts-offering-covid-19-retreats", "apiUrl": "https://content.guardianapis.com/technology/2020/apr/06/minister-condemns-airbnb-hosts-offering-covid-19-retreats", "isHosted": false, "pillarId": "pillar/news", "pillarName": "News"}, {"id": "world/2020/apr/04/fraudsters-exploiting-covid-19-fears-have-scammed-16m", "type": "article", "sectionId": "world", "sectionName": "World news", "webPublicationDate": "2020-04-04T16:29:35Z", "webTitle": "Fraudsters exploiting Covid-19 fears have scammed \u00a31.6m", "webUrl": "https://www.theguardian.com/world/2020/apr/04/fraudsters-exploiting-covid-19-fears-have-scammed-16m", "apiUrl": "https://content.guardianapis.com/world/2020/apr/04/fraudsters-exploiting-covid-19-fears-have-scammed-16m", "isHosted": false, "pillarId": "pillar/news", "pillarName": "News"}]}}